[
    {
        "code": 1,
        "name": "Sweater",
        "price": 700,
        "image": "./img/Sweater.jpg",
        "color": [
            "yellow"
        ]
    },
    {
        "code": 2,
        "name": "T-shirt",
        "price": 300,
        "image": "./img/T-shirt.jpg",
        "color": [
            "blue",
            "black",
            "white"
        ]
    },
    {
        "code": 3,
        "name": "Blouse",
        "price": 800,
        "image": "./img/Blouse.jpg",
        "color": [
            "black"
        ]
    },
    {
        "code": 4,
        "name": "Skirt",
        "price": 500,
        "image": "./img/Skirt.jpg",
        "color": [
            "brown"
        ]
    },
    {
        "name": "Dressing gown",
        "price": 750,
        "image": "./img/DressingGown.jpg",
        "code": 5,
        "color": [
            "red"
        ]
    },
    {
        "name": "Scarf",
        "price": 300,
        "image": "./img/Scarf.jpg",
        "code": 6,
        "color": ["purple"]
    },
    {
        "name": "Mittens",
        "price": 150,
        "image": "./img/Mittens.jpg",
        "code": 7,
        "color": [
            "orange"
        ]
    },
    {
        "name": "Anorak",
        "price": 500,
        "image": "./img/Anorak.jpg",
        "code": 8,
        "color": [
            "grey"
        ]
    },
    {
        "name": "Jacket",
        "price": 1500,
        "image": "./img/Jacket.jpg",
        "code": 9,
        "color": [
            "white"
        ]
    },
    {
        "name": "Coat",
        "price": 2000,
        "image": "./img/Coat.jpg",
        "code": 10,
        "color": [
            "black"
        ]
    }
]